G04 #@! TF.FileFunction,Profile,NP*
%FSLAX46Y46*%
G04 Gerber Fmt 4.6, Leading zero omitted, Abs format (unit mm)*
G04 Created by KiCad (PCBNEW 4.0.7) date Sat Jan 20 00:24:16 2018*
%MOMM*%
%LPD*%
G01*
G04 APERTURE LIST*
%ADD10C,0.100000*%
G04 APERTURE END LIST*
D10*
X5082000Y-12520000D02*
G75*
G03X5082000Y-12520000I-1562000J0D01*
G01*
X89080000Y-12520000D02*
G75*
G03X89080000Y-12520000I-1600000J0D01*
G01*
X5082000Y-68480000D02*
G75*
G03X5082000Y-68480000I-1562000J0D01*
G01*
X89080000Y-68480000D02*
G75*
G03X89080000Y-68480000I-1600000J0D01*
G01*
X91000000Y0D02*
X0Y0D01*
X91000000Y-85000000D02*
X91000000Y0D01*
X0Y-85000000D02*
X91000000Y-85000000D01*
X0Y0D02*
X0Y-85000000D01*
M02*
